{
  "data": [
  {
    "id": "72395678910",
    "number": 3114567,
    "concept": "Pago de servicios de cafeteria",
    "operationDate": "2017-10-23",
    "sentMoney": {
      "amount": "12450",
      "currency": "MXN"
    },
    "operationNumber": "1234567890",
    "receiver": {
      "type": "PHONE",
      "value": "5512756780",
      "holder": {
        "name": "Ana Maria Gomez"
      }
    },
    "digitalCheckStatus": {
      "id": "VALID",
      "name": "VALID"
    }
  },
  {
    "id": "4446678908",
    "number": 4435217,
    "concept": "Regalos del día del empleado",
    "operationDate": "2017-11-29",
    "sentMoney": {
      "amount": "1250",
      "currency": "MXN"
    },
    "operationNumber": "1234567890",
    "receiver": {
      "type": "PHONE",
      "value": "5512756780",
      "holder": {
        "name": "Ana Maria Gomez"
      }
    },
    "digitalCheckStatus": {
      "id": "VALID",
      "name": "VALID"
    }
  }
  ],
  "pagination": {
    "links": {
      "first": "https://www.bbvaapis.com/account/v0/accounts/213eerr555rrr/digital-checks",
      "last": "https://www.bbvaapis.com/account/v0/accounts/213eerr555rrr/digital-checks?paginationKey=gdfw254sf",
      "previous": "https://www.bbvaapis.com/account/v0/accounts/213eerr555rrr/digital-checks?paginationKey=dwer342sf",
      "next": "https://www.bbvaapis.com/account/v0/accounts/213eerr555rrr/digital-checks?paginationKey=qazx687sf"
    },
    "page": 1,
    "totalPages": 3,
    "totalElements": 6,
    "pageSize": 2
  }
}
